C:\Users\danie\OneDrive - Danmarks Tekniske Universitet\WebServices\DTUPay\TokenService\src\main\java\dtu\ws\fastmoney\GetAccountByCprNumber.java
C:\Users\danie\OneDrive - Danmarks Tekniske Universitet\WebServices\DTUPay\TokenService\src\main\java\dtu\ws\fastmoney\GetAccount.java
C:\Users\danie\OneDrive - Danmarks Tekniske Universitet\WebServices\DTUPay\TokenService\src\main\java\dtu\ws\fastmoney\Account.java
C:\Users\danie\OneDrive - Danmarks Tekniske Universitet\WebServices\DTUPay\TokenService\src\main\java\dtu\ws\fastmoney\RetireAccountResponse.java
C:\Users\danie\OneDrive - Danmarks Tekniske Universitet\WebServices\DTUPay\TokenService\src\main\java\dtu\ws\fastmoney\User.java
C:\Users\danie\OneDrive - Danmarks Tekniske Universitet\WebServices\DTUPay\TokenService\src\main\java\dtu\ws\fastmoney\ObjectFactory.java
C:\Users\danie\OneDrive - Danmarks Tekniske Universitet\WebServices\DTUPay\TokenService\src\main\java\dtu\ws\fastmoney\BankServiceException_Exception.java
C:\Users\danie\OneDrive - Danmarks Tekniske Universitet\WebServices\DTUPay\TokenService\src\main\java\dtu\ws\fastmoney\Transaction.java
C:\Users\danie\OneDrive - Danmarks Tekniske Universitet\WebServices\DTUPay\TokenService\src\main\java\token\TokenService.java
C:\Users\danie\OneDrive - Danmarks Tekniske Universitet\WebServices\DTUPay\TokenService\src\main\java\dtu\ws\fastmoney\RetireAccount.java
C:\Users\danie\OneDrive - Danmarks Tekniske Universitet\WebServices\DTUPay\TokenService\src\main\java\dtu\ws\fastmoney\GetAccountsResponse.java
C:\Users\danie\OneDrive - Danmarks Tekniske Universitet\WebServices\DTUPay\TokenService\src\main\java\dtu\ws\fastmoney\TransferMoneyFromToResponse.java
C:\Users\danie\OneDrive - Danmarks Tekniske Universitet\WebServices\DTUPay\TokenService\src\main\java\dtu\ws\fastmoney\TransferMoneyFromTo.java
C:\Users\danie\OneDrive - Danmarks Tekniske Universitet\WebServices\DTUPay\TokenService\src\main\java\dtu\ws\fastmoney\GetAccountResponse.java
C:\Users\danie\OneDrive - Danmarks Tekniske Universitet\WebServices\DTUPay\TokenService\src\main\java\dtu\ws\fastmoney\BankServiceService.java
C:\Users\danie\OneDrive - Danmarks Tekniske Universitet\WebServices\DTUPay\TokenService\src\main\java\dtu\ws\fastmoney\CreateAccountWithBalanceResponse.java
C:\Users\danie\OneDrive - Danmarks Tekniske Universitet\WebServices\DTUPay\TokenService\src\main\java\dtu\ws\fastmoney\package-info.java
C:\Users\danie\OneDrive - Danmarks Tekniske Universitet\WebServices\DTUPay\TokenService\src\main\java\dtu\ws\fastmoney\CreateAccountWithBalance.java
C:\Users\danie\OneDrive - Danmarks Tekniske Universitet\WebServices\DTUPay\TokenService\src\main\java\dtu\ws\fastmoney\BankServiceException.java
C:\Users\danie\OneDrive - Danmarks Tekniske Universitet\WebServices\DTUPay\TokenService\src\main\java\token\TokenRepository.java
C:\Users\danie\OneDrive - Danmarks Tekniske Universitet\WebServices\DTUPay\TokenService\src\main\java\dtu\ws\fastmoney\GetAccountByCprNumberResponse.java
C:\Users\danie\OneDrive - Danmarks Tekniske Universitet\WebServices\DTUPay\TokenService\src\main\java\dtu\ws\fastmoney\AccountInfo.java
C:\Users\danie\OneDrive - Danmarks Tekniske Universitet\WebServices\DTUPay\TokenService\src\main\java\token\TokenResource.java
C:\Users\danie\OneDrive - Danmarks Tekniske Universitet\WebServices\DTUPay\TokenService\src\main\java\token\StartUp.java
C:\Users\danie\OneDrive - Danmarks Tekniske Universitet\WebServices\DTUPay\TokenService\src\main\java\dtu\ws\fastmoney\BankService.java
C:\Users\danie\OneDrive - Danmarks Tekniske Universitet\WebServices\DTUPay\TokenService\src\main\java\dtu\ws\fastmoney\GetAccounts.java
